{
    "key": "group_58ebdb1fb1278",
    "title": "Global Content Blocks",
    "fields": [
        {
            "key": "field_58ebdb2e95d03",
            "label": "Content Blocks",
            "name": "content_blocks",
            "type": "flexible_content",
            "instructions": "",
            "required": 0,
            "conditional_logic": 0,
            "wrapper": {
                "width": "",
                "class": "",
                "id": ""
            },
            "layouts": {
                "58ebe820e12b2": {
                    "key": "58ebe820e12b2",
                    "name": "hero",
                    "label": "Hero",
                    "display": "block",
                    "sub_fields": [
                        {
                            "key": "field_596d1efee7147",
                            "label": "Block Content",
                            "name": "block_content",
                            "type": "clone",
                            "instructions": "",
                            "required": 0,
                            "conditional_logic": 0,
                            "wrapper": {
                                "width": "",
                                "class": "",
                                "id": ""
                            },
                            "clone": [
                                "group_596d1eb21b1a7"
                            ],
                            "display": "seamless",
                            "layout": "block",
                            "prefix_label": 0,
                            "prefix_name": 0
                        }
                    ],
                    "min": "",
                    "max": ""
                },
                "layout_5c49ec1e0cabe": {
                    "key": "layout_5c49ec1e0cabe",
                    "name": "slick_carousel",
                    "label": "Slick Slider",
                    "display": "block",
                    "sub_fields": [
                        {
                            "key": "field_5c49ec1e0cabf",
                            "label": "Block Content",
                            "name": "block_content",
                            "type": "clone",
                            "instructions": "",
                            "required": 0,
                            "conditional_logic": 0,
                            "wrapper": {
                                "width": "",
                                "class": "",
                                "id": ""
                            },
                            "clone": [
                                "group_5c49eb121857b"
                            ],
                            "display": "seamless",
                            "layout": "block",
                            "prefix_label": 0,
                            "prefix_name": 0
                        }
                    ],
                    "min": "",
                    "max": ""
                },
                "layout_5c50a20a351d1": {
                    "key": "layout_5c50a20a351d1",
                    "name": "slick_video_carousel",
                    "label": "Slick Video Slider",
                    "display": "block",
                    "sub_fields": [
                        {
                            "key": "field_5c50a20b351d2",
                            "label": "Block Content",
                            "name": "block_content",
                            "type": "clone",
                            "instructions": "",
                            "required": 0,
                            "conditional_logic": 0,
                            "wrapper": {
                                "width": "",
                                "class": "",
                                "id": ""
                            },
                            "clone": [
                                "group_5c50a1c898aa0"
                            ],
                            "display": "seamless",
                            "layout": "block",
                            "prefix_label": 0,
                            "prefix_name": 0
                        }
                    ],
                    "min": "",
                    "max": ""
                },
                "58ebe1abceb3a": {
                    "key": "58ebe1abceb3a",
                    "name": "generic_content",
                    "label": "Generic Content",
                    "display": "block",
                    "sub_fields": [
                        {
                            "key": "field_596d12fbfff60",
                            "label": "Block Content",
                            "name": "block_content",
                            "type": "clone",
                            "instructions": "",
                            "required": 0,
                            "conditional_logic": 0,
                            "wrapper": {
                                "width": "",
                                "class": "",
                                "id": ""
                            },
                            "clone": [
                                "group_596d129f3dc1f"
                            ],
                            "display": "seamless",
                            "layout": "block",
                            "prefix_label": 0,
                            "prefix_name": 0
                        },
                        {
                            "key": "field_596d1317fff61",
                            "label": "Background Options",
                            "name": "background_options",
                            "type": "clone",
                            "instructions": "",
                            "required": 0,
                            "conditional_logic": 0,
                            "wrapper": {
                                "width": "",
                                "class": "",
                                "id": ""
                            },
                            "clone": [
                                "group_58ebcc07bfbd7"
                            ],
                            "display": "seamless",
                            "layout": "block",
                            "prefix_label": 0,
                            "prefix_name": 0
                        },
                        {
                            "key": "field_596d1332fff62",
                            "label": "Other Options",
                            "name": "other_options",
                            "type": "clone",
                            "instructions": "",
                            "required": 0,
                            "conditional_logic": 0,
                            "wrapper": {
                                "width": "",
                                "class": "",
                                "id": ""
                            },
                            "clone": [
                                "group_594168e970d85"
                            ],
                            "display": "seamless",
                            "layout": "block",
                            "prefix_label": 0,
                            "prefix_name": 0
                        }
                    ],
                    "min": "",
                    "max": ""
                },
                "59089f8b3f35e": {
                    "key": "59089f8b3f35e",
                    "name": "fifty_fifty_block",
                    "label": "Fifty\/Fifty Block",
                    "display": "block",
                    "sub_fields": [
                        {
                            "key": "field_596e67dad2cac",
                            "label": "Block Content",
                            "name": "block_content",
                            "type": "clone",
                            "instructions": "",
                            "required": 0,
                            "conditional_logic": 0,
                            "wrapper": {
                                "width": "",
                                "class": "",
                                "id": ""
                            },
                            "clone": [
                                "group_596e6776dab80"
                            ],
                            "display": "seamless",
                            "layout": "block",
                            "prefix_label": 0,
                            "prefix_name": 0
                        },
                        {
                            "key": "field_596e67f9d2cad",
                            "label": "Background Options",
                            "name": "background_options",
                            "type": "clone",
                            "instructions": "",
                            "required": 0,
                            "conditional_logic": 0,
                            "wrapper": {
                                "width": "",
                                "class": "",
                                "id": ""
                            },
                            "clone": [
                                "group_58ebcc07bfbd7"
                            ],
                            "display": "seamless",
                            "layout": "block",
                            "prefix_label": 0,
                            "prefix_name": 0
                        },
                        {
                            "key": "field_596e6816d2cae",
                            "label": "Other Options",
                            "name": "other_options",
                            "type": "clone",
                            "instructions": "",
                            "required": 0,
                            "conditional_logic": 0,
                            "wrapper": {
                                "width": "",
                                "class": "",
                                "id": ""
                            },
                            "clone": [
                                "group_594168e970d85"
                            ],
                            "display": "seamless",
                            "layout": "block",
                            "prefix_label": 0,
                            "prefix_name": 0
                        }
                    ],
                    "min": "",
                    "max": ""
                },
                "5aa2b1ddabda0": {
                    "key": "5aa2b1ddabda0",
                    "name": "three_column_block",
                    "label": "Three Column Block",
                    "display": "block",
                    "sub_fields": [
                        {
                            "key": "field_5aa2b1ddabda1",
                            "label": "Block Content",
                            "name": "block_content",
                            "type": "clone",
                            "instructions": "",
                            "required": 0,
                            "conditional_logic": 0,
                            "wrapper": {
                                "width": "",
                                "class": "",
                                "id": ""
                            },
                            "clone": [
                                "group_5aa2b1090811e"
                            ],
                            "display": "seamless",
                            "layout": "block",
                            "prefix_label": 0,
                            "prefix_name": 0
                        },
                        {
                            "key": "field_5aa2b1ddabda2",
                            "label": "Background Options",
                            "name": "background_options",
                            "type": "clone",
                            "instructions": "",
                            "required": 0,
                            "conditional_logic": 0,
                            "wrapper": {
                                "width": "",
                                "class": "",
                                "id": ""
                            },
                            "clone": [
                                "group_58ebcc07bfbd7"
                            ],
                            "display": "seamless",
                            "layout": "block",
                            "prefix_label": 0,
                            "prefix_name": 0
                        },
                        {
                            "key": "field_5aa2b1ddabda3",
                            "label": "Other Options",
                            "name": "other_options",
                            "type": "clone",
                            "instructions": "",
                            "required": 0,
                            "conditional_logic": 0,
                            "wrapper": {
                                "width": "",
                                "class": "",
                                "id": ""
                            },
                            "clone": [
                                "group_594168e970d85"
                            ],
                            "display": "seamless",
                            "layout": "block",
                            "prefix_label": 0,
                            "prefix_name": 0
                        }
                    ],
                    "min": "",
                    "max": ""
                },
                "596f8962ed9b7": {
                    "key": "596f8962ed9b7",
                    "name": "cta",
                    "label": "Call To Action",
                    "display": "block",
                    "sub_fields": [
                        {
                            "key": "field_596f8967ed9b8",
                            "label": "Block Content",
                            "name": "block_content",
                            "type": "clone",
                            "instructions": "",
                            "required": 0,
                            "conditional_logic": 0,
                            "wrapper": {
                                "width": "",
                                "class": "",
                                "id": ""
                            },
                            "clone": [
                                "group_596f88fa8326f"
                            ],
                            "display": "seamless",
                            "layout": "block",
                            "prefix_label": 0,
                            "prefix_name": 0
                        },
                        {
                            "key": "field_596f8977ed9b9",
                            "label": "Background Options",
                            "name": "background_options",
                            "type": "clone",
                            "instructions": "",
                            "required": 0,
                            "conditional_logic": 0,
                            "wrapper": {
                                "width": "",
                                "class": "",
                                "id": ""
                            },
                            "clone": [
                                "group_58ebcc07bfbd7"
                            ],
                            "display": "seamless",
                            "layout": "block",
                            "prefix_label": 0,
                            "prefix_name": 0
                        },
                        {
                            "key": "field_596f8981ed9ba",
                            "label": "Other Options",
                            "name": "other_options",
                            "type": "clone",
                            "instructions": "",
                            "required": 0,
                            "conditional_logic": 0,
                            "wrapper": {
                                "width": "",
                                "class": "",
                                "id": ""
                            },
                            "clone": [
                                "group_594168e970d85"
                            ],
                            "display": "seamless",
                            "layout": "block",
                            "prefix_label": 0,
                            "prefix_name": 0
                        }
                    ],
                    "min": "",
                    "max": ""
                },
                "596f7c310bbf3": {
                    "key": "596f7c310bbf3",
                    "name": "recent_posts",
                    "label": "Recent Posts",
                    "display": "block",
                    "sub_fields": [
                        {
                            "key": "field_596f7c370bbf4",
                            "label": "Block Content",
                            "name": "block_content",
                            "type": "clone",
                            "instructions": "",
                            "required": 0,
                            "conditional_logic": 0,
                            "wrapper": {
                                "width": "",
                                "class": "",
                                "id": ""
                            },
                            "clone": [
                                "group_596f7b6a11ca1"
                            ],
                            "display": "seamless",
                            "layout": "block",
                            "prefix_label": 0,
                            "prefix_name": 0
                        },
                        {
                            "key": "field_596f7c470bbf5",
                            "label": "Background Options",
                            "name": "background_options",
                            "type": "clone",
                            "instructions": "",
                            "required": 0,
                            "conditional_logic": 0,
                            "wrapper": {
                                "width": "",
                                "class": "",
                                "id": ""
                            },
                            "clone": [
                                "group_58ebcc07bfbd7"
                            ],
                            "display": "seamless",
                            "layout": "block",
                            "prefix_label": 0,
                            "prefix_name": 0
                        },
                        {
                            "key": "field_596f7c4f0bbf6",
                            "label": "Other Options",
                            "name": "other_options",
                            "type": "clone",
                            "instructions": "",
                            "required": 0,
                            "conditional_logic": 0,
                            "wrapper": {
                                "width": "",
                                "class": "",
                                "id": ""
                            },
                            "clone": [
                                "group_594168e970d85"
                            ],
                            "display": "seamless",
                            "layout": "block",
                            "prefix_label": 0,
                            "prefix_name": 0
                        }
                    ],
                    "min": "",
                    "max": ""
                },
                "596fb94c399fb": {
                    "key": "596fb94c399fb",
                    "name": "related_posts",
                    "label": "Related Posts",
                    "display": "block",
                    "sub_fields": [
                        {
                            "key": "field_596fb954399fc",
                            "label": "Related Posts",
                            "name": "related_posts",
                            "type": "clone",
                            "instructions": "",
                            "required": 0,
                            "conditional_logic": 0,
                            "wrapper": {
                                "width": "",
                                "class": "",
                                "id": ""
                            },
                            "clone": [
                                "group_595550c063c89"
                            ],
                            "display": "seamless",
                            "layout": "block",
                            "prefix_label": 0,
                            "prefix_name": 0
                        },
                        {
                            "key": "field_596fb982399fd",
                            "label": "Background Options",
                            "name": "background_options",
                            "type": "clone",
                            "instructions": "",
                            "required": 0,
                            "conditional_logic": 0,
                            "wrapper": {
                                "width": "",
                                "class": "",
                                "id": ""
                            },
                            "clone": [
                                "group_58ebcc07bfbd7"
                            ],
                            "display": "seamless",
                            "layout": "block",
                            "prefix_label": 0,
                            "prefix_name": 0
                        },
                        {
                            "key": "field_596fb99f399fe",
                            "label": "Other Options",
                            "name": "other_options",
                            "type": "clone",
                            "instructions": "",
                            "required": 0,
                            "conditional_logic": 0,
                            "wrapper": {
                                "width": "",
                                "class": "",
                                "id": ""
                            },
                            "clone": [
                                "group_594168e970d85"
                            ],
                            "display": "seamless",
                            "layout": "block",
                            "prefix_label": 0,
                            "prefix_name": 0
                        }
                    ],
                    "min": "",
                    "max": ""
                },
                "5a9066236a7a3": {
                    "key": "5a9066236a7a3",
                    "name": "text_expander",
                    "label": "Text Expander",
                    "display": "block",
                    "sub_fields": [
                        {
                            "key": "field_5aa1942dc8715",
                            "label": "Background Options",
                            "name": "background_options",
                            "type": "clone",
                            "instructions": "",
                            "required": 0,
                            "conditional_logic": 0,
                            "wrapper": {
                                "width": "",
                                "class": "",
                                "id": ""
                            },
                            "clone": [
                                "group_58ebcc07bfbd7"
                            ],
                            "display": "seamless",
                            "layout": "block",
                            "prefix_label": 0,
                            "prefix_name": 0
                        },
                        {
                            "key": "field_5aa194783f32a",
                            "label": "Other Options",
                            "name": "other_options",
                            "type": "clone",
                            "instructions": "",
                            "required": 0,
                            "conditional_logic": 0,
                            "wrapper": {
                                "width": "",
                                "class": "",
                                "id": ""
                            },
                            "clone": [
                                "group_594168e970d85"
                            ],
                            "display": "seamless",
                            "layout": "block",
                            "prefix_label": 0,
                            "prefix_name": 0
                        },
                        {
                            "key": "field_5a90662e6a7a4",
                            "label": "Expander",
                            "name": "expander",
                            "type": "clone",
                            "instructions": "",
                            "required": 0,
                            "conditional_logic": 0,
                            "wrapper": {
                                "width": "",
                                "class": "",
                                "id": ""
                            },
                            "clone": [
                                "group_5a9062cfa7cdc"
                            ],
                            "display": "seamless",
                            "layout": "block",
                            "prefix_label": 0,
                            "prefix_name": 0
                        }
                    ],
                    "min": "",
                    "max": ""
                },
                "5aa6e0c346ad7": {
                    "key": "5aa6e0c346ad7",
                    "name": "custom_contact",
                    "label": "Custom Contact",
                    "display": "block",
                    "sub_fields": [
                        {
                            "key": "field_5aa6e0c346ad8",
                            "label": "Background Options",
                            "name": "background_options",
                            "type": "clone",
                            "instructions": "",
                            "required": 0,
                            "conditional_logic": 0,
                            "wrapper": {
                                "width": "",
                                "class": "",
                                "id": ""
                            },
                            "clone": [
                                "group_58ebcc07bfbd7"
                            ],
                            "display": "seamless",
                            "layout": "block",
                            "prefix_label": 0,
                            "prefix_name": 0
                        },
                        {
                            "key": "field_5aa6e0c346ad9",
                            "label": "Other Options",
                            "name": "other_options",
                            "type": "clone",
                            "instructions": "",
                            "required": 0,
                            "conditional_logic": 0,
                            "wrapper": {
                                "width": "",
                                "class": "",
                                "id": ""
                            },
                            "clone": [
                                "group_594168e970d85"
                            ],
                            "display": "seamless",
                            "layout": "block",
                            "prefix_label": 0,
                            "prefix_name": 0
                        },
                        {
                            "key": "field_5aa6e0c346ada",
                            "label": "Contact Form",
                            "name": "contact_form",
                            "type": "clone",
                            "instructions": "",
                            "required": 0,
                            "conditional_logic": 0,
                            "wrapper": {
                                "width": "",
                                "class": "",
                                "id": ""
                            },
                            "clone": [
                                "group_5aa6dfc818470"
                            ],
                            "display": "seamless",
                            "layout": "block",
                            "prefix_label": 0,
                            "prefix_name": 0
                        }
                    ],
                    "min": "",
                    "max": ""
                },
                "5aabe318f03d0": {
                    "key": "5aabe318f03d0",
                    "name": "envira_gallery",
                    "label": "Envira Gallery ",
                    "display": "block",
                    "sub_fields": [
                        {
                            "key": "field_5aabe318f03d1",
                            "label": "Background Options",
                            "name": "background_options",
                            "type": "clone",
                            "instructions": "",
                            "required": 0,
                            "conditional_logic": 0,
                            "wrapper": {
                                "width": "",
                                "class": "",
                                "id": ""
                            },
                            "clone": [
                                "group_58ebcc07bfbd7"
                            ],
                            "display": "seamless",
                            "layout": "block",
                            "prefix_label": 0,
                            "prefix_name": 0
                        },
                        {
                            "key": "field_5aabe318f03d2",
                            "label": "Other Options",
                            "name": "other_options",
                            "type": "clone",
                            "instructions": "",
                            "required": 0,
                            "conditional_logic": 0,
                            "wrapper": {
                                "width": "",
                                "class": "",
                                "id": ""
                            },
                            "clone": [
                                "group_594168e970d85"
                            ],
                            "display": "seamless",
                            "layout": "block",
                            "prefix_label": 0,
                            "prefix_name": 0
                        },
                        {
                            "key": "field_5aabe339f03d4",
                            "label": "The Gallery",
                            "name": "the_gallery",
                            "type": "clone",
                            "instructions": "",
                            "required": 0,
                            "conditional_logic": 0,
                            "wrapper": {
                                "width": "",
                                "class": "",
                                "id": ""
                            },
                            "clone": [
                                "group_5aabe2499349e"
                            ],
                            "display": "seamless",
                            "layout": "block",
                            "prefix_label": 0,
                            "prefix_name": 0
                        }
                    ],
                    "min": "",
                    "max": ""
                },
                "5a9ecaaabbbc9": {
                    "key": "5a9ecaaabbbc9",
                    "name": "how_to_section",
                    "label": "How TO Section",
                    "display": "row",
                    "sub_fields": [
                        {
                            "key": "field_5ab69721f8c27",
                            "label": "Background Options",
                            "name": "background_options",
                            "type": "clone",
                            "instructions": "",
                            "required": 0,
                            "conditional_logic": 0,
                            "wrapper": {
                                "width": "",
                                "class": "",
                                "id": ""
                            },
                            "clone": [
                                "group_58ebcc07bfbd7"
                            ],
                            "display": "seamless",
                            "layout": "block",
                            "prefix_label": 0,
                            "prefix_name": 0
                        },
                        {
                            "key": "field_5ab69741f8c28",
                            "label": "Other Options",
                            "name": "other_options",
                            "type": "clone",
                            "instructions": "",
                            "required": 0,
                            "conditional_logic": 0,
                            "wrapper": {
                                "width": "",
                                "class": "",
                                "id": ""
                            },
                            "clone": [
                                "group_594168e970d85"
                            ],
                            "display": "seamless",
                            "layout": "block",
                            "prefix_label": 0,
                            "prefix_name": 0
                        },
                        {
                            "key": "field_5a9ecaafbbbca",
                            "label": "How TO Section",
                            "name": "how_to_section",
                            "type": "clone",
                            "instructions": "",
                            "required": 0,
                            "conditional_logic": 0,
                            "wrapper": {
                                "width": "",
                                "class": "",
                                "id": ""
                            },
                            "clone": [
                                "group_5a9ec9bfa3bc0"
                            ],
                            "display": "seamless",
                            "layout": "block",
                            "prefix_label": 0,
                            "prefix_name": 0
                        }
                    ],
                    "min": "",
                    "max": ""
                },
                "5a9ecb960c3a0": {
                    "key": "5a9ecb960c3a0",
                    "name": "slider_section",
                    "label": "Slider Section",
                    "display": "row",
                    "sub_fields": [
                        {
                            "key": "field_5a9ecb9a0c3a1",
                            "label": "Slider Section",
                            "name": "slider_section",
                            "type": "clone",
                            "instructions": "",
                            "required": 0,
                            "conditional_logic": 0,
                            "wrapper": {
                                "width": "",
                                "class": "",
                                "id": ""
                            },
                            "clone": [
                                "group_5a9ecadf1d5ec"
                            ],
                            "display": "seamless",
                            "layout": "block",
                            "prefix_label": 0,
                            "prefix_name": 0
                        }
                    ],
                    "min": "",
                    "max": ""
                },
                "layout_5b85755c31cf0": {
                    "key": "layout_5b85755c31cf0",
                    "name": "free_shipping",
                    "label": "Promotional Banner",
                    "display": "row",
                    "sub_fields": [
                        {
                            "key": "field_5b85758931cf1",
                            "label": "Promotional text",
                            "name": "free_shipping_text",
                            "type": "text",
                            "instructions": "",
                            "required": 0,
                            "conditional_logic": 0,
                            "wrapper": {
                                "width": "",
                                "class": "",
                                "id": ""
                            },
                            "default_value": "",
                            "placeholder": "Free Shipping On All Orders !",
                            "prepend": "",
                            "append": "",
                            "maxlength": ""
                        },
                        {
                            "key": "field_5b85827f191a0",
                            "label": "Fontawesome Icon",
                            "name": "fontawesome_icon",
                            "type": "text",
                            "instructions": "",
                            "required": 0,
                            "conditional_logic": 0,
                            "wrapper": {
                                "width": "",
                                "class": "",
                                "id": ""
                            },
                            "default_value": "",
                            "placeholder": "",
                            "prepend": "",
                            "append": "",
                            "maxlength": ""
                        }
                    ],
                    "min": "",
                    "max": ""
                },
                "layout_5bb27d2f61380": {
                    "key": "layout_5bb27d2f61380",
                    "name": "global_warning",
                    "label": "Global Warning",
                    "display": "row",
                    "sub_fields": [
                        {
                            "key": "field_5bb27d4261381",
                            "label": "Warning Massage",
                            "name": "warning_massage",
                            "type": "textarea",
                            "instructions": "",
                            "required": 0,
                            "conditional_logic": 0,
                            "wrapper": {
                                "width": "",
                                "class": "",
                                "id": ""
                            },
                            "default_value": "",
                            "placeholder": "",
                            "maxlength": "",
                            "rows": "",
                            "new_lines": ""
                        }
                    ],
                    "min": "",
                    "max": ""
                }
            },
            "button_label": "Add Block",
            "min": "",
            "max": ""
        }
    ],
    "location": [
        [
            {
                "param": "page_template",
                "operator": "==",
                "value": "template-acf.php"
            }
        ]
    ],
    "menu_order": 0,
    "position": "normal",
    "style": "default",
    "label_placement": "top",
    "instruction_placement": "label",
    "hide_on_screen": [
        "the_content",
        "excerpt",
        "discussion",
        "comments",
        "revisions",
        "slug",
        "author",
        "format",
        "categories",
        "tags",
        "send-trackbacks"
    ],
    "active": 1,
    "description": "",
    "modified": 1548788269
}